<svg xmlns="http://www.w3.org/2000/svg" viewBox="0 0 273 111.08">
  <defs>
    <style>
      .cls-1 {
        fill: none;
        stroke: #000;
        stroke-miterlimit: 10;
        stroke-width: 2px;
      }

      .cls-2 {
        fill: #fff;
      }
    </style>
  </defs>
  <title>logo-black</title>
  <g id="Isolation_Mode" data-name="Isolation Mode">
    <g>
      <g>
        <rect class="cls-1" x="1" y="39.65" width="271" height="43"/>
        <g>
          <path d="M134,24.41a16.59,16.59,0,0,0,.5,5.06,10.44,10.44,0,0,0,1.91,3.79,16.11,16.11,0,0,0,1.53,1.67c.5.49,1.16.81,1.62,1.35a3.7,3.7,0,0,0-3.93.49c-.86.87-1.26,2.87-.35,3.87a2.54,2.54,0,0,1,.17-2c.81-1.14,2.58-1.35,3.81-1.14a48.47,48.47,0,0,0,6.1,1c5.09.27,10-2.82,14.09-5.6.74-.51,1.61-.91,2.4-1.35a7.35,7.35,0,0,1,3.15-.8c3.14-.12,6.94.73,7.94,4.15.77,2.64,0,6-3.13,6.45-1.81.27-4.55-.13-5.33-2.13a3.76,3.76,0,0,1,1.19-4.36,3,3,0,0,1,2.83-.62,2.24,2.24,0,0,1,1.24,2.49,1.55,1.55,0,0,1-.28.54,1.64,1.64,0,0,1-2.3.31h0a1.07,1.07,0,0,1-.17-1.5l0,0c-.78.35-.69,1.57-.29,2.18a2.07,2.07,0,0,0,2,.66,2.66,2.66,0,0,0,1-.2,2.56,2.56,0,0,0,1.39-3.33,3.86,3.86,0,0,0-2.55-2.13c-2.29-.75-5.31.3-6.14,2.73-.91,2.64.81,4.47,3.09,5.47,4.36,2,11.58.65,9.73-5.67a7,7,0,0,0-2-3.16,8,8,0,0,1,3.47,4.11,31.54,31.54,0,0,0,2,4.24c.55.82,2.1,2.63,2.87.93a3.35,3.35,0,0,0-.18-2.41,16.36,16.36,0,0,0-3.14-4.37,15.56,15.56,0,0,0-6.4-4.22,13.25,13.25,0,0,1,4.88,1.86,48.32,48.32,0,0,1,5.39,4.92,25,25,0,0,0,10.67,5.81c2.71.68,6.61,1.5,9.16-.16,4-2.58.68-8.13-3.32-8.3-2.73-.11-5,3.29-2.43,5.29a2.36,2.36,0,0,0,2.19.38c.63-.23,1.47-1.13,1-1.8.08.7-.29,1.07-1,1a1.7,1.7,0,0,1-1.27-.78c-1-1.92,1.57-4.42,3.23-2.57,1.06,1.18,1.87,3.16,1,4.68-1.82,3.15-6.88,2.15-9.65,1.15A25.23,25.23,0,0,1,182.28,36c-4.31-4.35-9.5-6.2-15.63-6.28a18.41,18.41,0,0,0-2.35.12,16.37,16.37,0,0,1,7.28-.78c1.92.23,3.71,1,5.62,1.23,1.29.15,2.83-.16,2.5-1.78-.14-.74-.9-1.12-1.54-1.4a10.1,10.1,0,0,0-4.78-.59,28.7,28.7,0,0,0-7.31,1.71c2.19-1.49,4.55-3,7.19-3.38a14.24,14.24,0,0,1,9.18,1.63c1.69.9,4,2.27,4.52,4.27a2.29,2.29,0,0,1-3.69,2.46,2.71,2.71,0,0,1-.72-1.13c.77,2.42,2.67,4.6,5.39,4.78a3.26,3.26,0,0,0,1.65-.35,3.17,3.17,0,0,0,1.4-4.26h0a3.71,3.71,0,0,0,3.36,2.31c1.06,0,2.39-.5,2.46-1.7a.78.78,0,0,1-.82.51c-3.45.44-4.54-4.65-7.15-5.79.78.33,1.52.62,2.3,1,4.11,2,7.89,4.73,12,6.87,3.62,1.92,9.32,4.41,13.85,3.86,3.21,0,6-.84,9,.82,2.08,1.24,4.4,2.36,6.89,2.24,2-.12,3.38-1.12,2.94-3.36.15,1.74-1.69,2.18-3.08,1.88-2-.47-3.36-2.47-4.64-3.9a5.25,5.25,0,0,0-2.28-1.78,4.71,4.71,0,0,0-3.32.33,9.33,9.33,0,0,0,.71-1.84,15.68,15.68,0,0,0,.27-5.91c-.09-.77-.28-1.52-.43-2.29a6.8,6.8,0,0,1-.06-2.91c.13-.46.37-1,.92-1,.32,0,1.18.57.93,1,.93-1.55-1.23-2.62-2.46-2.55a2.84,2.84,0,0,0-2.76,2.33,6.92,6.92,0,0,0-2.1-1.1c-3.89-1.4-8.53.1-10.1,4.19a6.68,6.68,0,0,0-.31,3.57A3.64,3.64,0,0,0,211.34,32a3.6,3.6,0,0,0,1.47-.61,3.24,3.24,0,0,0,1-4.3,3.48,3.48,0,0,0-3.43-1.52,2.93,2.93,0,0,0-1.77,1.31c-.23.39-.52,1.34-.23,1.74a2.93,2.93,0,0,1-.3-2.75,5.66,5.66,0,0,1,1.64-2.69,7.37,7.37,0,0,1,9,.07,9,9,0,0,1,2.5,9.22c-1.24,4.45-4.37,6.16-8.37,5.57h-.17c2.61,0,5.37-.57,6.7-2.77A8.07,8.07,0,0,0,220.52,30c-.24-1.69-2-5.19-4.15-3.37-.81.68.12,2.35.47,3,1.33,2.42,1.13,5.32-1.67,6.81-2.44,1.3-5.33.59-7.92-.27-2.87-1-5.23-3.08-7.94-4.32.29.08.58.17.88.23a4.83,4.83,0,0,0,3.9-.58,3.87,3.87,0,0,0,1.35-3.37c-.06-1.52-.36-3.71,1.44-4.32a1.73,1.73,0,0,0-.32-.11A2.12,2.12,0,0,0,204,25.25c-.57-2.15-4-3.41-6-2.86.53-.15,1.6.86,1.87,1.23a3.39,3.39,0,0,1,.67,2.06c0,1.45-.55,3-2.15,3.25-2,.37-4.64-.87-6.53-1.51a5.05,5.05,0,0,0,3.31-.69c2.37-1.62,1.72-4.27-.48-5.7-1.47-1-4.42-.82-4.19,1.55a1.8,1.8,0,0,0,2.91,1.12c.52-.55.62-1.38-.21-1.65.36.1.34.79.15,1C192,24.59,190,21.81,192,21.12a2.88,2.88,0,0,1,1.94.14,3.1,3.1,0,0,1,1.61,3.2c-.86,3.18-4.48,2.59-7.55,1.59-1.41-.55-2.85-1.05-4.31-1.46-5.53-1.55-10.41-1.94-15.29.26a5.42,5.42,0,0,0-2.17-7.17,7,7,0,0,0-2.88-.94c-1.89-.18-7.59,2.19-7.52-1.24a2.49,2.49,0,0,0-.27,2.29,2.4,2.4,0,0,0,.55,1c.16.14.9.63,1.1.55-2,.84-4,1.54-6.16.79a5.89,5.89,0,0,1-4-3.66A3.84,3.84,0,0,1,148.6,12a4,4,0,0,1,3.36-.1,3.58,3.58,0,0,1,1.51,1,2,2,0,0,1,.44,1.89,2.42,2.42,0,0,0-4.49-1.13,2.47,2.47,0,0,0-.19,1,2.52,2.52,0,0,0,2.57,2.47h0a2.77,2.77,0,0,0,2.75-2.74,2.61,2.61,0,0,0-.29-1.19c-.59-1.48-2.39-2.4-4.23-2.48-3.15-.13-4.94,3.63-3.75,6.32,1.79,4.09,6.69,4.71,10.44,3.39,2.29-.8,6.58-3.43,8.87-1.35,2.49,2.25,1.62,5.37-.32,7.52-.64.43-1.28.89-1.91,1.35a6.2,6.2,0,0,0-.39-4.3c-.08-.14-.16-.28-.25-.41a3.41,3.41,0,0,0-4.75-.77,4.21,4.21,0,0,0-1.62,2.93A2.5,2.5,0,0,0,158,27.76a2.41,2.41,0,0,0,2.78-1.16A1.21,1.21,0,0,0,159,25.09c1-.13,1.82.81,1,1.64h0a1.62,1.62,0,0,1-2.28-.15,2.32,2.32,0,0,1-.24-2.58,3.39,3.39,0,0,1,2.09-1.65c2-.4,3,1.4,3,3.11a6.57,6.57,0,0,1-2.39,4.7,18.16,18.16,0,0,1-4.37,3A19,19,0,0,1,150.68,35c-3.21.44-6.9-1.1-8.3-4.16a6.3,6.3,0,0,1-.54-3.5,8.15,8.15,0,0,0-.78,5,6.33,6.33,0,0,0,2.55,3.83,5.56,5.56,0,0,0,2.06.64A5.81,5.81,0,0,1,139,33.44a9.47,9.47,0,0,1,.16-9.09,5.07,5.07,0,0,1,3.28-2.8,6.54,6.54,0,0,1,5.6,1c1.7,1.16,2.78,4.18,1.43,5.94a2.13,2.13,0,0,1-1,.75,2.57,2.57,0,0,0,.14-3.35,2.83,2.83,0,0,0-3.55-.54l-.18.13a2.9,2.9,0,0,0-.54,4.08h0A3.56,3.56,0,0,0,147,30.79a3.48,3.48,0,0,0,1.83-.53.56.56,0,0,0,.2-.11l.12-.12A3.5,3.5,0,0,0,150,29c2.66-4.16-2.07-9.14-6.88-8.94-5,.21-7.79,5.16-7.36,9.74-1.54-4.92,3.21-10.11,4.85-14.92S140.81,4.48,136.19,2a6.67,6.67,0,0,0-1.66-.68c.85.2,2.1,2,2.46,2.7a8.28,8.28,0,0,1,.86,4c0,4.69-2.43,8.6-3.43,13A21.16,21.16,0,0,0,134,24.41Z" transform="translate(0 -1.35)"/>
          <path d="M133.88,24.41a16.91,16.91,0,0,1-.5,5.06,10.44,10.44,0,0,1-1.91,3.79,16.11,16.11,0,0,1-1.53,1.67c-.5.49-1.16.81-1.62,1.35a3.7,3.7,0,0,1,3.93.49c.86.87,1.26,2.87.35,3.87a2.54,2.54,0,0,0-.17-2c-.81-1.14-2.58-1.35-3.81-1.14a48.47,48.47,0,0,1-6.1,1c-5.09.27-10-2.82-14.09-5.6-.74-.51-1.61-.91-2.4-1.35a7.39,7.39,0,0,0-3.15-.8c-3.14-.12-6.94.73-7.94,4.15-.77,2.64,0,6,3.13,6.45,1.81.27,4.55-.13,5.33-2.13a3.78,3.78,0,0,0-1.19-4.36,3,3,0,0,0-2.83-.62,2.23,2.23,0,0,0-1.24,2.49,1.4,1.4,0,0,0,.28.54,1.64,1.64,0,0,0,2.3.31h0a1.07,1.07,0,0,0,.17-1.5l0,0c.78.35.69,1.57.29,2.18a2.08,2.08,0,0,1-2,.66,2.57,2.57,0,0,1-2.39-3.53,3.84,3.84,0,0,1,2.55-2.13c2.29-.75,5.31.3,6.14,2.73.91,2.64-.81,4.47-3.09,5.47-4.36,2-11.58.65-9.73-5.67a6.91,6.91,0,0,1,2-3.16,8,8,0,0,0-3.47,4.11,31.54,31.54,0,0,1-2,4.24c-.55.82-2.1,2.63-2.87.93a3.3,3.3,0,0,1,.18-2.41,16.14,16.14,0,0,1,3.14-4.37A15.43,15.43,0,0,1,96,30.87a13.12,13.12,0,0,0-4.88,1.86,48.32,48.32,0,0,0-5.39,4.92,25.08,25.08,0,0,1-10.67,5.81c-2.71.68-6.61,1.5-9.16-.16-4-2.58-.68-8.13,3.32-8.3,2.73-.11,5,3.29,2.43,5.29a2.36,2.36,0,0,1-2.19.38c-.63-.23-1.47-1.13-1-1.8-.08.7.29,1.07,1,1a1.7,1.7,0,0,0,1.27-.78c1-1.92-1.57-4.42-3.23-2.57-1.06,1.18-1.87,3.16-1,4.68,1.82,3.15,6.88,2.15,9.65,1.15A25.23,25.23,0,0,0,85.59,36c4.31-4.35,9.5-6.2,15.63-6.28a18.5,18.5,0,0,1,2.35.12A16.37,16.37,0,0,0,96.29,29c-1.92.23-3.71,1-5.62,1.23-1.29.15-2.83-.16-2.5-1.78.14-.74.9-1.12,1.54-1.4a10.1,10.1,0,0,1,4.78-.59,28.7,28.7,0,0,1,7.31,1.71c-2.19-1.49-4.55-3-7.19-3.38a14.24,14.24,0,0,0-9.18,1.63c-1.69.9-4,2.27-4.52,4.27a2.29,2.29,0,0,0,3.69,2.46,2.71,2.71,0,0,0,.72-1.13c-.77,2.42-2.67,4.6-5.39,4.78a3.26,3.26,0,0,1-1.65-.35,3.17,3.17,0,0,1-1.4-4.26h0a3.71,3.71,0,0,1-3.36,2.31c-1.06,0-2.39-.5-2.46-1.7a.78.78,0,0,0,.82.51c3.45.44,4.54-4.65,7.15-5.79-.78.33-1.52.62-2.3,1-4.11,2-7.89,4.73-12,6.87-3.62,1.92-9.32,4.41-13.85,3.86-3.21,0-6-.84-9,.82-2.08,1.24-4.4,2.36-6.89,2.24-2-.12-3.38-1.12-2.94-3.36-.15,1.74,1.69,2.18,3.08,1.88,2-.47,3.36-2.47,4.64-3.9a5.14,5.14,0,0,1,2.28-1.78,4.71,4.71,0,0,1,3.32.33,9.33,9.33,0,0,1-.71-1.84,15.48,15.48,0,0,1-.27-5.91c.09-.77.28-1.52.43-2.29a6.8,6.8,0,0,0,.06-2.91c-.13-.46-.37-1-.92-1-.32,0-1.18.57-.93,1C42.1,21,44.26,20,45.49,20a2.84,2.84,0,0,1,2.76,2.33,6.92,6.92,0,0,1,2.1-1.1c3.89-1.4,8.53.1,10.1,4.19A6.78,6.78,0,0,1,60.76,29,3.65,3.65,0,0,1,56.52,32a3.5,3.5,0,0,1-1.46-.61,3.24,3.24,0,0,1-1-4.3,3.47,3.47,0,0,1,3.43-1.52,3,3,0,0,1,1.77,1.31c.23.39.52,1.34.23,1.74a3,3,0,0,0,.3-2.75,5.66,5.66,0,0,0-1.64-2.69,7.37,7.37,0,0,0-9,.07,9,9,0,0,0-2.5,9.22C47.89,36.88,51,38.59,55,38h.17c-2.61,0-5.37-.57-6.7-2.77A8.07,8.07,0,0,1,47.35,30c.24-1.69,2-5.19,4.15-3.37.81.68-.12,2.35-.47,3C49.7,32.07,49.9,35,52.7,36.46c2.44,1.3,5.33.59,7.92-.27,2.87-1,5.23-3.08,7.94-4.32-.29.08-.58.17-.88.23a4.82,4.82,0,0,1-3.9-.58,3.84,3.84,0,0,1-1.35-3.37c.06-1.52.36-3.71-1.44-4.32a1.73,1.73,0,0,1,.32-.11,2.13,2.13,0,0,1,2.57,1.53c.57-2.15,4-3.41,6-2.86-.53-.15-1.6.86-1.87,1.23a3.32,3.32,0,0,0-.67,2.06c0,1.45.55,3,2.15,3.25,2,.37,4.64-.87,6.53-1.51a5.05,5.05,0,0,1-3.31-.69c-2.37-1.62-1.72-4.27.48-5.7,1.47-1,4.42-.82,4.19,1.55a1.81,1.81,0,0,1-2.06,1.5,1.78,1.78,0,0,1-.85-.38c-.52-.55-.62-1.38.21-1.65-.36.1-.34.79-.15,1,1.35,1.54,3.35-1.24,1.3-1.93a2.88,2.88,0,0,0-1.94.14,3.1,3.1,0,0,0-1.61,3.2c.86,3.18,4.48,2.59,7.55,1.59,1.41-.55,2.85-1.05,4.31-1.46,5.53-1.55,10.41-1.94,15.29.26a5.42,5.42,0,0,1,2.17-7.17,7,7,0,0,1,2.88-.94c1.89-.18,7.59,2.19,7.52-1.24a2.49,2.49,0,0,1,.27,2.29,2.4,2.4,0,0,1-.55,1c-.16.14-.9.63-1.1.55,2,.84,4,1.54,6.16.79a5.93,5.93,0,0,0,4-3.66A3.85,3.85,0,0,0,119.27,12a4,4,0,0,0-3.36-.1,3.58,3.58,0,0,0-1.51,1,2,2,0,0,0-.44,1.89,2.42,2.42,0,0,1,4.49-1.13,2.65,2.65,0,0,1,.19,1,2.52,2.52,0,0,1-2.57,2.47h0a2.76,2.76,0,0,1-2.75-2.74,2.61,2.61,0,0,1,.29-1.19c.59-1.48,2.39-2.4,4.23-2.48,3.15-.13,4.94,3.63,3.75,6.32-1.79,4.09-6.69,4.71-10.44,3.39-2.29-.8-6.58-3.43-8.87-1.35-2.49,2.25-1.62,5.37.32,7.52.64.43,1.28.89,1.91,1.35a6.2,6.2,0,0,1,.39-4.3c.08-.14.16-.28.25-.41a3.41,3.41,0,0,1,4.75-.77,4.24,4.24,0,0,1,1.62,2.93,2.5,2.5,0,0,1-1.62,2.36,2.41,2.41,0,0,1-2.78-1.16,1.21,1.21,0,0,1,.58-1.61,1.23,1.23,0,0,1,1.2.1c-1-.13-1.82.81-1,1.64h0a1.62,1.62,0,0,0,2.28-.15A2.34,2.34,0,0,0,110.4,24a3.42,3.42,0,0,0-2.09-1.65c-2-.4-3,1.4-3,3.11a6.54,6.54,0,0,0,2.39,4.7,18,18,0,0,0,4.37,3A19,19,0,0,0,117.19,35c3.21.44,6.9-1.1,8.3-4.16a6.39,6.39,0,0,0,.54-3.5,8.15,8.15,0,0,1,.78,5,6.33,6.33,0,0,1-2.55,3.83,5.56,5.56,0,0,1-2.06.64,5.82,5.82,0,0,0,6.63-3.38,9.47,9.47,0,0,0-.16-9.09,5.12,5.12,0,0,0-3.28-2.8,6.53,6.53,0,0,0-5.6,1c-1.7,1.16-2.78,4.18-1.43,5.94a2.13,2.13,0,0,0,1,.75,2.57,2.57,0,0,1-.14-3.35,2.83,2.83,0,0,1,3.55-.54l.18.13a2.92,2.92,0,0,1,.54,4.08h0a3.56,3.56,0,0,1-2.61,1.23,3.48,3.48,0,0,1-1.83-.53.43.43,0,0,1-.2-.11l-.12-.12a3.37,3.37,0,0,1-.88-1.07c-2.66-4.16,2.07-9.14,6.88-8.94,5,.21,7.79,5.16,7.36,9.74,1.54-4.92-3.21-10.11-4.85-14.92S127.06,4.48,131.68,2a6.52,6.52,0,0,1,1.66-.68c-.85.2-2.1,2-2.46,2.7a8.17,8.17,0,0,0-.86,4c0,4.69,2.43,8.6,3.43,13A22.38,22.38,0,0,1,133.88,24.41Z" transform="translate(0 -1.35)"/>
        </g>
        <g>
          <path d="M17.53,59.87a23,23,0,0,0-2.88-11.38,3.12,3.12,0,0,1,1.53-.38,5.56,5.56,0,0,1,1.35.19,4.54,4.54,0,0,0,1.1.09,2.28,2.28,0,0,0,1.44-.57c.29-.34.53-.72.87-.72s.57.38.91.72a1.87,1.87,0,0,0,1.29.57,5.18,5.18,0,0,0,1.2-.09,5.15,5.15,0,0,1,1.3-.19,3.64,3.64,0,0,1,1.73.38,21.39,21.39,0,0,0-3.12,11.38V67.5c0,7.1-.43,11.38-8.35,11.38-4.47,0-7-1.68-8.45-5.57-.77-2.07-1.3-4-2.55-5.57,1.54-1.3,3.36-.91,5,.24,1.39-1.15,3.45-1.54,4.6-.24-2.4,3.6-.76,6.24.87,6.24s2.16-1,2.16-6.24Z" transform="translate(0 -1.35)"/>
          <path d="M34.61,59.87a22.31,22.31,0,0,0-3.07-11.38,3.57,3.57,0,0,1,1.68-.38,5.56,5.56,0,0,1,1.35.19,5,5,0,0,0,1.15.09,2,2,0,0,0,1.39-.57c.24-.24.58-.72.91-.72s.58.24,1,.57a4.24,4.24,0,0,0,2.45.72,3.81,3.81,0,0,0,2.21-.57c.53-.34.91-.72,1.25-.72s.57.24,1,.62a7.25,7.25,0,0,0,3.6.67,7.59,7.59,0,0,0,3-.48,4.09,4.09,0,0,1,1.2-.43c.14,0,.29.58.29,1.15a3.39,3.39,0,0,1-.58,1.83,1.52,1.52,0,0,0-.33.77,2.48,2.48,0,0,0,.38,1.1A4.49,4.49,0,0,1,54,54.15a5.74,5.74,0,0,1-.58,2.6,4.57,4.57,0,0,0-.53,1.63,5,5,0,0,0,.68,2c-3.65-.24-5.43-3.69-6-5.23-.68-1.77-1.92-3-3.32-3-2.93,0-2.93,3-2.93,6.29,0,1.58.63,3.16,1.69,3.16a1.19,1.19,0,0,0,1.34-1.15A4.46,4.46,0,0,0,44,58.67c2.93-.2,3.7,1.53,3.7,2.68a3.9,3.9,0,0,1-.91,2.5,2.94,2.94,0,0,1,.91,2.3c0,1.35-.77,3.32-3.7,3a4.51,4.51,0,0,0,.34-1.78c0-.67-.53-1.1-1.34-1.1a1.48,1.48,0,0,0-1.69,1.63c0,2.07,0,6.15,4.42,6.15a4.69,4.69,0,0,0,4.61-4.28,4.32,4.32,0,0,0-.72-2.2c2.54,0,5.52.81,5.52,4.13a5.3,5.3,0,0,1-1.06,3,4.66,4.66,0,0,1,1.44,3.79,6.29,6.29,0,0,0-3.4-1.15,9.33,9.33,0,0,0-3.12.82,12.57,12.57,0,0,1-4.66.77A14.92,14.92,0,0,1,38,77.39a5,5,0,0,1-3,1c-1.11,0-3.51-.76-3.51-4.17,2.88-.43,3.12-5.33,3.12-7.2Z" transform="translate(0 -1.35)"/>
          <path d="M68.79,67.07c0,1.87.29,6.77,3.17,7.2,0,3.41-2.45,4.17-3.41,4.17a3.89,3.89,0,0,1-2.54-1,3.94,3.94,0,0,1-2.55,1c-1,0-3.41-.76-3.41-4.17,2.88-.43,3.12-5.33,3.12-7.2v-7.2A21.34,21.34,0,0,0,60.1,48.49a3.57,3.57,0,0,1,1.68-.38,5.56,5.56,0,0,1,1.35.19,7.22,7.22,0,0,0,1.39.09,1.89,1.89,0,0,0,1.15-.57c.24-.34.58-.72.91-.72s.67.48.91.72a2.28,2.28,0,0,0,1.3.57,4.22,4.22,0,0,0,1.06-.09,4.54,4.54,0,0,1,1.1-.19,1.86,1.86,0,0,1,1,.28c.67,3.08,3.55,10,6.82,13.3a46.1,46.1,0,0,0-2-13.58c.38,0,.77.14,1.1.19a8.27,8.27,0,0,0,1.06.09,2.58,2.58,0,0,0,1.68-.57c.24-.24.58-.72.91-.72s.67.48.91.72a2.07,2.07,0,0,0,1.4.57A5,5,0,0,0,85,48.3a6.81,6.81,0,0,1,1.68-.19c-2.35,4.56-2.4,16.89-2.4,21.41a51.81,51.81,0,0,0,.91,8.92,8.15,8.15,0,0,1-4-1,6.07,6.07,0,0,1-3.51,1,47.27,47.27,0,0,0-8.49-18.72,3.64,3.64,0,0,0-.34,1.59Z" transform="translate(0 -1.35)"/>
          <path d="M100.33,67.07c0,1.87.28,6.77,3.16,7.2,0,3.41-2.44,4.17-3.4,4.17a3.94,3.94,0,0,1-2.55-1,3.91,3.91,0,0,1-2.54,1c-1,0-3.41-.76-3.41-4.17,2.88-.43,3.12-5.33,3.12-7.2v-7.2a21.34,21.34,0,0,0-3.07-11.38,3.52,3.52,0,0,1,1.68-.38,5.41,5.41,0,0,1,1.34.19,7.22,7.22,0,0,0,1.39.09,1.89,1.89,0,0,0,1.16-.57c.24-.34.57-.72.91-.72s.67.48.91.72a2.25,2.25,0,0,0,1.3.57,4.15,4.15,0,0,0,1-.09,4.7,4.7,0,0,1,1.11-.19,1.89,1.89,0,0,1,1,.28c.67,3.08,3.55,10,6.81,13.3a46.1,46.1,0,0,0-2-13.58c.39,0,.77.14,1.11.19a8.12,8.12,0,0,0,1.06.09,2.55,2.55,0,0,0,1.67-.57c.25-.24.58-.72.92-.72s.67.48.91.72a2.07,2.07,0,0,0,1.39.57,5,5,0,0,0,1.15-.09,6.87,6.87,0,0,1,1.68-.19c-2.35,4.56-2.4,16.89-2.4,21.41a51.84,51.84,0,0,0,.92,8.92,8.18,8.18,0,0,1-4-1,6,6,0,0,1-3.5,1,47.31,47.31,0,0,0-8.5-18.72,3.63,3.63,0,0,0-.33,1.59Z" transform="translate(0 -1.35)"/>
          <path d="M132.92,65.1a6.67,6.67,0,0,0-.43-2.88c-.68-1.39-8.26-10.42-11-13.73a2.21,2.21,0,0,1,1.29-.38,5.56,5.56,0,0,1,1.35.19,4.54,4.54,0,0,0,1.1.09,2.12,2.12,0,0,0,1.44-.57c.19-.24.53-.72.86-.72s.72.48.92.72a2.39,2.39,0,0,0,1.44.57,4.54,4.54,0,0,0,1.1-.09,6.64,6.64,0,0,1,1.39-.19c.53,0,1,.09,1.49.14-.29,5.76,2.3,9.94,2.74,9.94s3.45-4.08,2.78-10.08a6.28,6.28,0,0,1,1.44.19,5,5,0,0,0,1.15.09,2.25,2.25,0,0,0,1.39-.57c.25-.24.58-.72.92-.72s.67.48.91.72a2.27,2.27,0,0,0,1.39.57,4.75,4.75,0,0,0,1.15-.09,4.7,4.7,0,0,1,1.11-.19,2.13,2.13,0,0,1,1.2.28c-3.07,4.47-6.63,9.12-9.84,13.35-.39.53-.53,1.53-.53,3.36v2c0,1.87.29,6.77,3.17,7.2,0,3.41-2.45,4.17-3.56,4.17a5.1,5.1,0,0,1-3-1,5,5,0,0,1-3,1c-1.1,0-3.5-.76-3.5-4.17,2.88-.43,3.12-5.33,3.12-7.2Z" transform="translate(0 -1.35)"/>
          <path d="M173.43,67.07c0,3.5,0,7,3.65,7a4.2,4.2,0,0,0,4.27-4.51,5.84,5.84,0,0,0-1.1-3.27c3.45-1,6.86.58,6.86,4.37a6.56,6.56,0,0,1-1.44,4.27,4.77,4.77,0,0,1,1.58,3.55c-1.2-.28-2.83-1-4.32-1a10.32,10.32,0,0,0-3.69.91,12.78,12.78,0,0,1-3.75.58c-1.92,0-4.46-.53-5.37-1.49a5.28,5.28,0,0,1-3,1c-1.1,0-3.5-.76-3.5-4.17,2.88-.43,3.12-5.33,3.12-7.2v-7.2a21.34,21.34,0,0,0-3.07-11.38,3.52,3.52,0,0,1,1.68-.38,5.41,5.41,0,0,1,1.34.19,5,5,0,0,0,1.15.09,2.43,2.43,0,0,0,1.4-.57c.23-.24.57-.72.91-.72s.57.29.91.57a2,2,0,0,0,1.34.72,4.58,4.58,0,0,0,1.11-.09,3.87,3.87,0,0,1,1.05-.19,2.88,2.88,0,0,1,1.44.38,27.79,27.79,0,0,0-2.54,11.38Z" transform="translate(0 -1.35)"/>
          <path d="M201.27,67.07c0,1.87.29,6.77,3.17,7.2,0,3.41-2.45,4.17-3.56,4.17a4.84,4.84,0,0,1-2.92-1,5.28,5.28,0,0,1-3,1c-1.1,0-3.5-.76-3.5-4.17,2.88-.43,3.12-5.33,3.12-7.2v-7.2a21.34,21.34,0,0,0-3.07-11.38,3.52,3.52,0,0,1,1.68-.38,5.41,5.41,0,0,1,1.34.19,6.47,6.47,0,0,0,1.34.09,1.86,1.86,0,0,0,1.2-.57c.34-.34.58-.72.92-.72s.62.48.86.72a2.27,2.27,0,0,0,1.39.57,5,5,0,0,0,1.15-.09,5.22,5.22,0,0,1,1.35-.19,3.57,3.57,0,0,1,1.68.38,21.39,21.39,0,0,0-3.12,11.38Z" transform="translate(0 -1.35)"/>
          <path d="M217.35,67.07c0,1.87.29,6.77,3.17,7.2,0,3.41-2.45,4.17-3.41,4.17a3.94,3.94,0,0,1-2.55-1,3.89,3.89,0,0,1-2.54,1c-1,0-3.41-.76-3.41-4.17,2.88-.43,3.12-5.33,3.12-7.2v-7.2a21.34,21.34,0,0,0-3.07-11.38,3.55,3.55,0,0,1,1.68-.38,5.41,5.41,0,0,1,1.34.19,7.32,7.32,0,0,0,1.4.09,1.89,1.89,0,0,0,1.15-.57c.24-.34.57-.72.91-.72s.67.48.91.72a2.25,2.25,0,0,0,1.3.57,4.15,4.15,0,0,0,1.05-.09,4.7,4.7,0,0,1,1.11-.19,1.86,1.86,0,0,1,1,.28c.67,3.08,3.55,10,6.81,13.3a46.4,46.4,0,0,0-2-13.58c.38,0,.76.14,1.1.19a8.12,8.12,0,0,0,1.06.09,2.58,2.58,0,0,0,1.68-.57c.24-.24.57-.72.91-.72s.67.48.91.72a2.07,2.07,0,0,0,1.39.57,5,5,0,0,0,1.16-.09,6.81,6.81,0,0,1,1.68-.19c-2.36,4.56-2.4,16.89-2.4,21.41a51.81,51.81,0,0,0,.91,8.92,8.15,8.15,0,0,1-4-1,6.09,6.09,0,0,1-3.51,1,47.31,47.31,0,0,0-8.5-18.72,3.63,3.63,0,0,0-.33,1.59Z" transform="translate(0 -1.35)"/>
          <path d="M243.32,59.87c0-4.28-.77-8-3.08-11.38a2.89,2.89,0,0,1,1.59-.38,6,6,0,0,1,1.44.19,6.23,6.23,0,0,0,1.29.09,1.81,1.81,0,0,0,1.25-.57c.24-.24.58-.72.91-.72s.58.38.92.67a2,2,0,0,0,1.34.62,9.23,9.23,0,0,0,1.54-.14,18,18,0,0,1,2.25-.14c8.35,0,12.82,5.32,12.82,14,0,9.94-3.26,16.76-11.95,16.76a12.7,12.7,0,0,1-6.87-1.59,4.79,4.79,0,0,1-3.07,1.15c-1.1,0-3.5-.76-3.5-4.17,2.88-.43,3.12-5.33,3.12-7.2Zm6.72,7.2c0,4.61,0,7.29,3,7.29,3.65,0,4.7-3.88,4.7-12.14,0-6.15-1.2-9.6-4.7-9.6-3,0-3,3-3,7.25Z" transform="translate(0 -1.35)"/>
        </g>
        <g>
          <path d="M135.53,95.8a10.73,10.73,0,0,1,.4-3.65,7.24,7.24,0,0,1,1.52-2.73,12.78,12.78,0,0,1,1.23-1.21c.4-.35.92-.58,1.29-1a3.23,3.23,0,0,1-3.14-.35,2.11,2.11,0,0,1-.28-2.79,1.64,1.64,0,0,0,.14,1.44,3.42,3.42,0,0,0,3,.82,44.49,44.49,0,0,1,4.88-.72c4.07-.2,8,2,11.26,4,.59.37,1.29.65,1.92,1a6.37,6.37,0,0,0,2.52.58c2.51.08,5.55-.53,6.35-3,.61-1.91,0-4.33-2.5-4.66-1.45-.19-3.64.1-4.27,1.54a2.55,2.55,0,0,0,1,3.14,2.59,2.59,0,0,0,2.26.45,1.58,1.58,0,0,0,1-1.79,1.07,1.07,0,0,0-.22-.39A1.42,1.42,0,0,0,162,86.3h0a.72.72,0,0,0-.14,1.08l0,0c-.62-.25-.55-1.13-.23-1.57a1.75,1.75,0,0,1,1.6-.47,2.21,2.21,0,0,1,.8.14,1.8,1.8,0,0,1,1.11,2.4,3.06,3.06,0,0,1-2,1.54c-1.83.54-4.25-.22-4.91-2-.73-1.91.65-3.23,2.47-4,3.49-1.44,9.26-.46,7.78,4.09a5,5,0,0,1-1.6,2.28,5.93,5.93,0,0,0,2.77-3,21.21,21.21,0,0,1,1.6-3.06c.44-.59,1.68-1.9,2.3-.67a2.21,2.21,0,0,1-.15,1.74,11.82,11.82,0,0,1-2.51,3.15,12.54,12.54,0,0,1-5.11,3,11.29,11.29,0,0,0,3.9-1.34A37.82,37.82,0,0,0,174,86.25a20.69,20.69,0,0,1,8.53-4.19c2.16-.49,5.28-1.08,7.32.12,3.2,1.86.54,5.86-2.65,6-2.19.08-4-2.37-1.95-3.81a2.08,2.08,0,0,1,1.75-.28c.51.17,1.18.82.8,1.3.07-.5-.23-.77-.8-.72a1.42,1.42,0,0,0-1,.56,1.62,1.62,0,0,0,2.58,1.86c.85-.85,1.5-2.28.8-3.38-1.46-2.27-5.5-1.55-7.71-.83a20.43,20.43,0,0,0-7.53,4.6c-3.44,3.13-7.59,4.47-12.49,4.53-.63,0-1.26,0-1.88-.09a14.48,14.48,0,0,0,5.82.56c1.53-.16,3-.72,4.49-.89,1-.1,2.26.12,2,1.29-.11.53-.72.81-1.23,1a9,9,0,0,1-3.82.42,25.17,25.17,0,0,1-5.85-1.23,15.15,15.15,0,0,0,5.75,2.44,12.43,12.43,0,0,0,7.34-1.18c1.35-.65,3.2-1.64,3.61-3.08a1.61,1.61,0,0,0-1.12-2.1,2,2,0,0,0-1.83.33,1.91,1.91,0,0,0-.57.81,5,5,0,0,1,4.31-3.44,2.73,2.73,0,0,1,1.32.25,2.18,2.18,0,0,1,1.12,3.07h0a3,3,0,0,1,2.68-1.66c.85,0,1.91.36,2,1.22a.63.63,0,0,0-.66-.37c-2.76-.31-3.63,3.36-5.71,4.18.62-.24,1.21-.45,1.84-.72,3.28-1.44,6.3-3.41,9.59-5,2.89-1.38,7.45-3.18,11.07-2.78,2.57,0,4.8.61,7.2-.59a10.8,10.8,0,0,1,5.5-1.62c1.6.09,2.71.81,2.35,2.43.12-1.26-1.35-1.58-2.46-1.36-1.6.34-2.68,1.78-3.71,2.81a3.53,3.53,0,0,1-4.47,1.05,6,6,0,0,1,.56,1.33,10.21,10.21,0,0,1,.22,4.26c-.07.55-.22,1.09-.34,1.65a4.27,4.27,0,0,0,0,2.1c.1.33.29.72.73.72.26,0,1-.41.75-.72.74,1.11-1,1.89-2,1.84A2.24,2.24,0,0,1,204,97.29a6,6,0,0,1-1.68.79c-3.11,1-6.81-.07-8.07-3a4.39,4.39,0,0,1-.25-2.58,2.92,2.92,0,0,1,3.39-2.13,3,3,0,0,1,1.17.45,2.2,2.2,0,0,1,.8,3.1A2.92,2.92,0,0,1,196.6,95a2.32,2.32,0,0,1-1.42-.94c-.18-.28-.41-1-.18-1.26a2,2,0,0,0-.24,2,4.08,4.08,0,0,0,1.31,1.94,6.41,6.41,0,0,0,7.19,0,6.07,6.07,0,0,0,2-6.65c-1-3.21-3.49-4.45-6.69-4h-.13c2.08,0,4.29.41,5.35,2a5.32,5.32,0,0,1,.91,3.75c-.19,1.22-1.6,3.75-3.31,2.43-.65-.49.09-1.69.37-2.16,1.06-1.74.9-3.84-1.33-4.91-2-.94-4.27-.42-6.34.2-2.29.72-4.18,2.22-6.34,3.11l.7-.17a4.28,4.28,0,0,1,3.12.42,2.67,2.67,0,0,1,1.08,2.43c-.05,1.1-.29,2.68,1.15,3.12l-.26.08a1.72,1.72,0,0,1-2-1.11c-.46,1.55-3.2,2.46-4.8,2.07.43.1,1.28-.62,1.5-.89a2.29,2.29,0,0,0,.53-1.49A2.11,2.11,0,0,0,187,92.54c-1.6-.27-3.71.63-5.22,1.09a4.4,4.4,0,0,1,2.65.5c1.89,1.17,1.37,3.08-.38,4.11-1.18.68-3.54.59-3.35-1.12A1.42,1.42,0,0,1,182.34,96a1.46,1.46,0,0,1,.68.27c.42.4.5,1-.17,1.19.29-.07.28-.57.12-.72-1.07-1.11-2.67.89-1,1.39a2.52,2.52,0,0,0,1.56-.1,2.18,2.18,0,0,0,1.28-2.31c-.68-2.29-3.58-1.86-6-1.14-1.13.39-2.28.75-3.45,1-4.42,1.12-8.32,1.4-12.22-.19a3.72,3.72,0,0,1-1.74,5.17,5.9,5.9,0,0,1-2.3.68c-1.51.13-6.07-1.58-6,.89a1.64,1.64,0,0,1-.22-1.65,1.7,1.7,0,0,1,.44-.72c.13-.1.72-.45.88-.39a7.29,7.29,0,0,0-4.92-.57,4.56,4.56,0,0,0-3.2,2.64,2.63,2.63,0,0,0,1.21,3.22,3.51,3.51,0,0,0,2.68.07,2.86,2.86,0,0,0,1.21-.72,1.34,1.34,0,0,0,.35-1.36,1.86,1.86,0,0,1-2,1.65,2,2,0,0,1-1.57-.84,1.79,1.79,0,0,1-.15-.72,1.93,1.93,0,0,1,2-1.78h0a2.1,2.1,0,0,1,2.2,2,1.72,1.72,0,0,1-.23.85,3.82,3.82,0,0,1-3.38,1.79,3.22,3.22,0,0,1-3-4.56c1.43-2.94,5.35-3.39,8.34-2.44,1.84.58,5.27,2.47,7.1,1,2-1.62,1.29-3.87-.26-5.42-.51-.31-1-.64-1.53-1a4.09,4.09,0,0,1-.31,3.1,3,3,0,0,1-.2.29,2.92,2.92,0,0,1-3.8.56,3,3,0,0,1-1.29-2.11,1.82,1.82,0,0,1,1.29-1.71,2,2,0,0,1,2.23.84.84.84,0,0,1-.47,1.16,1.08,1.08,0,0,1-1-.07c.8.09,1.46-.58.8-1.18h0a1.37,1.37,0,0,0-1.82.11,1.54,1.54,0,0,0-.19,1.86A2.72,2.72,0,0,0,156,97.29a2,2,0,0,0,2.4-2.25,4.63,4.63,0,0,0-1.91-3.39,15.06,15.06,0,0,0-3.5-2.16,16.31,16.31,0,0,0-4.09-1.32c-2.57-.32-5.52.79-6.64,3a4.25,4.25,0,0,0-.43,2.52,5.33,5.33,0,0,1-.62-3.62,4.59,4.59,0,0,1,2-2.76,4.88,4.88,0,0,1,1.65-.46,4.8,4.8,0,0,0-5.31,2.44,6.25,6.25,0,0,0,.13,6.55,4,4,0,0,0,2.62,2,5.71,5.71,0,0,0,4.48-.72c1.36-.84,2.22-3,1.14-4.28a1.63,1.63,0,0,0-.79-.54,1.72,1.72,0,0,1,.11,2.41,2.43,2.43,0,0,1-2.84.39l-.14-.09a2,2,0,0,1-.44-2.94h0a3,3,0,0,1,2.09-.89,2.94,2.94,0,0,1,1.46.38.4.4,0,0,1,.16.08l.1.09a2.44,2.44,0,0,1,.7.77c2.13,3-1.65,6.59-5.5,6.45a6.24,6.24,0,0,1-5.88-7c-1.23,3.55,2.56,7.29,3.88,10.76a7.18,7.18,0,0,1-3.55,9.24,5.74,5.74,0,0,1-1.33.49c.68-.15,1.68-1.44,2-2a5.4,5.4,0,0,0,.68-2.88c0-3.38-1.94-6.2-2.74-9.38A14.24,14.24,0,0,1,135.53,95.8Z" transform="translate(0 -1.35)"/>
          <path d="M135.44,95.8a11,11,0,0,0-.4-3.65,7.41,7.41,0,0,0-1.53-2.73,12.67,12.67,0,0,0-1.22-1.21c-.4-.35-.93-.58-1.3-1a3.23,3.23,0,0,0,3.14-.35,2.11,2.11,0,0,0,.28-2.79,1.67,1.67,0,0,1-.13,1.44,3.44,3.44,0,0,1-3.05.82,44.31,44.31,0,0,0-4.87-.72c-4.07-.2-8,2-11.27,4-.59.37-1.29.65-1.92,1a6.37,6.37,0,0,1-2.52.58c-2.51.08-5.54-.53-6.34-3-.62-1.91,0-4.33,2.5-4.66,1.45-.19,3.64.1,4.26,1.54a2.55,2.55,0,0,1-.95,3.14,2.59,2.59,0,0,1-2.26.45,1.57,1.57,0,0,1-1-1.79,1.09,1.09,0,0,1,.23-.39,1.42,1.42,0,0,1,1.84-.23h0a.71.71,0,0,1,.13,1.08v0c.62-.25.55-1.13.23-1.57a1.75,1.75,0,0,0-1.6-.47,2.14,2.14,0,0,0-.8.14,1.78,1.78,0,0,0-1.11,2.4,3,3,0,0,0,2,1.54c1.83.54,4.24-.22,4.9-2,.73-1.91-.64-3.23-2.47-4-3.48-1.44-9.25-.46-7.77,4.09a4.94,4.94,0,0,0,1.59,2.28,6,6,0,0,1-2.77-3,20.26,20.26,0,0,0-1.6-3.06c-.44-.59-1.68-1.9-2.29-.67A2.21,2.21,0,0,0,97.55,85a12,12,0,0,0,2.51,3.15,12.64,12.64,0,0,0,5.12,3,11.22,11.22,0,0,1-3.9-1.34A36.15,36.15,0,0,1,97,86.25a20.81,20.81,0,0,0-8.53-4.19c-2.17-.49-5.29-1.08-7.32.12-3.2,1.86-.55,5.86,2.65,6,2.18.08,4-2.37,1.94-3.81A2.07,2.07,0,0,0,84,84.07c-.5.17-1.17.82-.8,1.3-.06-.5.23-.77.8-.72a1.44,1.44,0,0,1,1,.56,1.63,1.63,0,0,1-2.59,1.86c-.84-.85-1.49-2.28-.8-3.38,1.46-2.27,5.5-1.55,7.72-.83a20.47,20.47,0,0,1,7.52,4.6c3.45,3.13,7.6,4.47,12.5,4.53.62,0,1.25,0,1.88-.09a14.48,14.48,0,0,1-5.82.56c-1.54-.16-3-.72-4.5-.89-1-.1-2.26.12-2,1.29.12.53.72.81,1.24,1a9,9,0,0,0,3.82.42,25.09,25.09,0,0,0,5.84-1.23A15.15,15.15,0,0,1,104,95.5a12.43,12.43,0,0,1-7.34-1.18c-1.35-.65-3.19-1.64-3.61-3.08a1.61,1.61,0,0,1,1.13-2.1,2,2,0,0,1,1.82.33,1.85,1.85,0,0,1,.58.81,5,5,0,0,0-4.31-3.44,2.71,2.71,0,0,0-1.32.25,2.18,2.18,0,0,0-1.12,3.07h0a3,3,0,0,0-2.69-1.66c-.84,0-1.91.36-2,1.22a.61.61,0,0,1,.65-.37c2.76-.31,3.63,3.36,5.72,4.18-.63-.24-1.22-.45-1.84-.72-3.29-1.44-6.31-3.41-9.59-5-2.9-1.38-7.46-3.18-11.08-2.78-2.56,0-4.79.61-7.19-.59a10.83,10.83,0,0,0-5.51-1.62c-1.6.09-2.7.81-2.35,2.43-.12-1.26,1.35-1.58,2.46-1.36,1.6.34,2.69,1.78,3.71,2.81a3.54,3.54,0,0,0,4.48,1.05,6.5,6.5,0,0,0-.57,1.33,10.21,10.21,0,0,0-.21,4.26c.07.55.22,1.09.34,1.65a4.52,4.52,0,0,1,.05,2.1c-.11.33-.3.72-.74.72-.25,0-.94-.41-.74-.72-.75,1.11,1,1.89,2,1.84A2.23,2.23,0,0,0,67,97.29a6.17,6.17,0,0,0,1.68.79c3.11,1,6.82-.07,8.07-3A4.31,4.31,0,0,0,77,92.48a2.91,2.91,0,0,0-3.38-2.13,3,3,0,0,0-1.17.45,2.19,2.19,0,0,0-.8,3.1A2.9,2.9,0,0,0,74.37,95a2.27,2.27,0,0,0,1.41-.94c.19-.28.42-1,.19-1.26a2,2,0,0,1,.24,2,4.15,4.15,0,0,1-1.31,1.94,6.43,6.43,0,0,1-7.2,0,6.09,6.09,0,0,1-2-6.65c1-3.21,3.5-4.45,6.69-4h.14c-2.09,0-4.29.41-5.36,2a5.37,5.37,0,0,0-.91,3.75c.19,1.22,1.6,3.75,3.32,2.43.65-.49-.1-1.69-.38-2.16-1.06-1.74-.9-3.84,1.34-4.91,1.95-.94,4.26-.42,6.33.2,2.29.72,4.18,2.22,6.35,3.11l-.71-.17a4.25,4.25,0,0,0-3.11.42,2.65,2.65,0,0,0-1.08,2.43c0,1.1.28,2.68-1.15,3.12l.25.08a1.73,1.73,0,0,0,2.06-1.11c.45,1.55,3.19,2.46,4.79,2.07-.42.1-1.28-.62-1.49-.89a2.3,2.3,0,0,1-.54-1.49A2.11,2.11,0,0,1,84,92.54c1.6-.27,3.71.63,5.22,1.09a4.37,4.37,0,0,0-2.64.5c-1.9,1.17-1.38,3.08.38,4.11,1.17.68,3.53.59,3.35-1.12A1.43,1.43,0,0,0,88.62,96a1.5,1.5,0,0,0-.68.27c-.41.4-.49,1,.17,1.19-.29-.07-.27-.57-.12-.72,1.08-1.11,2.68.89,1,1.39a2.49,2.49,0,0,1-1.55-.1,2.17,2.17,0,0,1-1.29-2.31c.69-2.29,3.58-1.86,6-1.14,1.12.39,2.28.75,3.44,1,4.42,1.12,8.32,1.4,12.23-.19a3.72,3.72,0,0,0,1.73,5.17,5.9,5.9,0,0,0,2.3.68c1.51.13,6.07-1.58,6,.89a1.66,1.66,0,0,0,.21-1.65,1.7,1.7,0,0,0-.44-.72c-.13-.1-.72-.45-.88-.39a7.31,7.31,0,0,1,4.93-.57,4.56,4.56,0,0,1,3.19,2.64,2.62,2.62,0,0,1-1.2,3.22,3.53,3.53,0,0,1-2.69.07,2.92,2.92,0,0,1-1.21-.72,1.34,1.34,0,0,1-.35-1.36,1.86,1.86,0,0,0,2,1.65,1.94,1.94,0,0,0,1.56-.84,1.51,1.51,0,0,0,.15-.72,1.93,1.93,0,0,0-2-1.78h0a2.1,2.1,0,0,0-2.2,2,1.73,1.73,0,0,0,.24.85,3.82,3.82,0,0,0,3.38,1.79,3.22,3.22,0,0,0,3-4.56c-1.44-2.94-5.35-3.39-8.35-2.44-1.83.58-5.26,2.47-7.09,1-2-1.62-1.3-3.87.25-5.42.52-.31,1-.64,1.53-1a4.09,4.09,0,0,0,.31,3.1c.07.1.13.2.2.29a2.92,2.92,0,0,0,3.8.56,3,3,0,0,0,1.3-2.11,1.83,1.83,0,0,0-1.3-1.71,2,2,0,0,0-2.22.84.83.83,0,0,0,.47,1.16,1.06,1.06,0,0,0,1-.07c-.8.09-1.45-.58-.8-1.18h0a1.37,1.37,0,0,1,1.82.11,1.54,1.54,0,0,1,.2,1.86A2.75,2.75,0,0,1,115,97.29,2,2,0,0,1,112.6,95a4.57,4.57,0,0,1,1.91-3.39A15,15,0,0,1,118,89.49a16.58,16.58,0,0,1,4.09-1.32c2.57-.32,5.52.79,6.64,3a4.11,4.11,0,0,1,.43,2.52,5.33,5.33,0,0,0,.62-3.62,4.58,4.58,0,0,0-2-2.76,4.88,4.88,0,0,0-1.65-.46,4.78,4.78,0,0,1,5.3,2.44,6.23,6.23,0,0,1-.13,6.55,4,4,0,0,1-2.62,2,5.71,5.71,0,0,1-4.48-.72c-1.36-.84-2.22-3-1.14-4.28a1.66,1.66,0,0,1,.8-.54,1.71,1.71,0,0,0-.11,2.41,2.43,2.43,0,0,0,2.84.39l.14-.09a2,2,0,0,0,.43-2.94h0a2.94,2.94,0,0,0-3.55-.51.48.48,0,0,0-.16.08l-.09.09a2.6,2.6,0,0,0-.71.77c-2.12,3,1.66,6.59,5.5,6.45a6.25,6.25,0,0,0,5.89-7c1.23,3.55-2.57,7.29-3.88,10.76a7.17,7.17,0,0,0,3.55,9.24,5.43,5.43,0,0,0,1.33.49c-.68-.15-1.68-1.44-2-2a5.5,5.5,0,0,1-.69-2.88c0-3.38,1.94-6.2,2.74-9.38A14.26,14.26,0,0,0,135.44,95.8Z" transform="translate(0 -1.35)"/>
        </g>
      </g>
      <ellipse cx="136" cy="90.65" rx="22" ry="11"/>
      <g>
        <path class="cls-2" d="M126.37,93.77c0,.66.1,2.4,1.12,2.55a1.31,1.31,0,0,1-1.26,1.48,1.71,1.71,0,0,1-1-.38,1.88,1.88,0,0,1-1.07.38,1.3,1.3,0,0,1-1.24-1.48c1-.15,1.1-1.89,1.1-2.55V91.22a7.52,7.52,0,0,0-1.09-4,1.32,1.32,0,0,1,.6-.14,2.12,2.12,0,0,1,.47.07,1.91,1.91,0,0,0,.48,0,.7.7,0,0,0,.43-.21c.11-.12.2-.25.32-.25s.22.17.3.25a.87.87,0,0,0,.5.21,1.36,1.36,0,0,0,.4,0,2.12,2.12,0,0,1,.48-.07,1.35,1.35,0,0,1,.6.14,7.54,7.54,0,0,0-1.11,4Z" transform="translate(0 -1.35)"/>
        <path class="cls-2" d="M132.07,93.77c0,.66.1,2.4,1.12,2.55A1.31,1.31,0,0,1,132,97.8a1.38,1.38,0,0,1-.9-.38,1.38,1.38,0,0,1-.9.38A1.3,1.3,0,0,1,129,96.32c1-.15,1.11-1.89,1.11-2.55V91.22a7.61,7.61,0,0,0-1.09-4,1.28,1.28,0,0,1,.59-.14,2.31,2.31,0,0,1,.48.07,2,2,0,0,0,.49,0A.68.68,0,0,0,131,87c.09-.12.21-.25.32-.25s.24.17.33.25a.81.81,0,0,0,.46.21,1.2,1.2,0,0,0,.37,0,2,2,0,0,1,.39-.07.65.65,0,0,1,.34.11,12,12,0,0,0,2.41,4.7,16.61,16.61,0,0,0-.69-4.81c.13,0,.27.06.39.07a2.46,2.46,0,0,0,.37,0,.93.93,0,0,0,.6-.21c.08-.08.2-.25.32-.25s.24.17.32.25a.77.77,0,0,0,.5.21,1.36,1.36,0,0,0,.4,0,2.73,2.73,0,0,1,.6-.07c-.83,1.62-.85,6-.85,7.59a19.24,19.24,0,0,0,.32,3.16,2.91,2.91,0,0,1-1.43-.38,2.12,2.12,0,0,1-1.24.38,16.62,16.62,0,0,0-3-6.63,1.33,1.33,0,0,0-.11.56Z" transform="translate(0 -1.35)"/>
        <path class="cls-2" d="M143.23,93.77c0,.66.11,2.4,1.13,2.55a1.31,1.31,0,0,1-1.21,1.48,1.38,1.38,0,0,1-.9-.38,1.38,1.38,0,0,1-.9.38,1.3,1.3,0,0,1-1.21-1.48c1-.15,1.11-1.89,1.11-2.55V91.22a7.61,7.61,0,0,0-1.09-4,1.28,1.28,0,0,1,.59-.14,2.31,2.31,0,0,1,.48.07,2,2,0,0,0,.49,0,.68.68,0,0,0,.41-.21c.08-.12.2-.25.32-.25s.24.17.33.25a.81.81,0,0,0,.45.21,1.23,1.23,0,0,0,.38,0,1.89,1.89,0,0,1,.39-.07.65.65,0,0,1,.34.11,12,12,0,0,0,2.41,4.7,16.61,16.61,0,0,0-.69-4.81c.13,0,.27.06.39.07a2.46,2.46,0,0,0,.37,0,1,1,0,0,0,.6-.21c.08-.08.2-.25.32-.25s.24.17.32.25a.75.75,0,0,0,.5.21,1.36,1.36,0,0,0,.4,0,2.73,2.73,0,0,1,.6-.07c-.83,1.62-.85,6-.85,7.59A18.21,18.21,0,0,0,149,97.8a2.88,2.88,0,0,1-1.43-.38,2.12,2.12,0,0,1-1.24.38,16.62,16.62,0,0,0-3-6.63,1.34,1.34,0,0,0-.12.56Z" transform="translate(0 -1.35)"/>
      </g>
    </g>
  </g>
</svg>
