<svg xmlns="http://www.w3.org/2000/svg" viewBox="0 0 203.94 42.92">
  <defs>
    <style>
      .cls-1 {
        fill: #fcfafa;
      }
    </style>
  </defs>
  <title>white_swirl</title>
  <g id="Isolation_Mode" data-name="Isolation Mode">
    <g>
      <path class="cls-1" d="M102,23.41a16.59,16.59,0,0,0,.5,5.06,10.44,10.44,0,0,0,1.91,3.79,16.11,16.11,0,0,0,1.53,1.67c.5.49,1.16.81,1.62,1.35a3.7,3.7,0,0,0-3.93.49c-.86.87-1.26,2.87-.35,3.87a2.54,2.54,0,0,1,.17-2c.81-1.14,2.58-1.35,3.81-1.14a48.47,48.47,0,0,0,6.1,1c5.09.27,10-2.82,14.09-5.6.74-.51,1.61-.91,2.4-1.35a7.35,7.35,0,0,1,3.15-.8c3.14-.12,6.94.73,7.94,4.15.77,2.64,0,6-3.13,6.45-1.81.27-4.55-.13-5.33-2.13a3.76,3.76,0,0,1,1.19-4.36,3,3,0,0,1,2.83-.62,2.24,2.24,0,0,1,1.24,2.49,1.55,1.55,0,0,1-.28.54,1.64,1.64,0,0,1-2.3.31h0a1.07,1.07,0,0,1-.17-1.5l0,0c-.78.35-.69,1.57-.29,2.18a2.07,2.07,0,0,0,2,.66,2.66,2.66,0,0,0,1-.2,2.56,2.56,0,0,0,1.39-3.33,3.86,3.86,0,0,0-2.55-2.13c-2.29-.75-5.31.3-6.14,2.73-.91,2.64.81,4.47,3.09,5.47,4.36,2,11.58.65,9.73-5.67a7,7,0,0,0-2-3.16,8,8,0,0,1,3.47,4.11,31.54,31.54,0,0,0,2,4.24c.55.82,2.1,2.63,2.87.93a3.35,3.35,0,0,0-.18-2.41,16.36,16.36,0,0,0-3.14-4.37,15.56,15.56,0,0,0-6.4-4.22,13.25,13.25,0,0,1,4.88,1.86,48.32,48.32,0,0,1,5.39,4.92,25,25,0,0,0,10.67,5.81c2.71.68,6.61,1.5,9.16-.16,4-2.58.68-8.13-3.32-8.3-2.73-.11-5,3.29-2.43,5.29a2.36,2.36,0,0,0,2.19.38c.63-.23,1.47-1.13,1-1.8.08.7-.29,1.07-1,1a1.7,1.7,0,0,1-1.27-.78c-1-1.92,1.57-4.42,3.23-2.57,1.06,1.18,1.87,3.16,1,4.68-1.82,3.15-6.88,2.15-9.65,1.15A25.23,25.23,0,0,1,150.28,35c-4.31-4.35-9.5-6.2-15.63-6.28a18.41,18.41,0,0,0-2.35.12,16.37,16.37,0,0,1,7.28-.78c1.92.23,3.71,1,5.62,1.23,1.29.15,2.83-.16,2.5-1.78-.14-.74-.9-1.12-1.54-1.4a10.1,10.1,0,0,0-4.78-.59,28.7,28.7,0,0,0-7.31,1.71c2.19-1.49,4.55-3,7.19-3.38a14.24,14.24,0,0,1,9.18,1.63c1.69.9,4,2.27,4.52,4.27a2.29,2.29,0,0,1-3.69,2.46,2.71,2.71,0,0,1-.72-1.13c.77,2.42,2.67,4.6,5.39,4.78a3.26,3.26,0,0,0,1.65-.35,3.17,3.17,0,0,0,1.4-4.26h0a3.71,3.71,0,0,0,3.36,2.31c1.06,0,2.39-.5,2.46-1.7a.78.78,0,0,1-.82.51c-3.45.44-4.54-4.65-7.15-5.79.78.33,1.52.62,2.3,1,4.11,2,7.89,4.73,12,6.87,3.62,1.92,9.32,4.41,13.85,3.86,3.21,0,6-.84,9,.82,2.08,1.24,4.4,2.36,6.89,2.24,2-.12,3.38-1.12,2.94-3.36.15,1.74-1.69,2.18-3.08,1.88-2-.47-3.36-2.47-4.64-3.9a5.25,5.25,0,0,0-2.28-1.78,4.71,4.71,0,0,0-3.32.33,9.33,9.33,0,0,0,.71-1.84,15.68,15.68,0,0,0,.27-5.91c-.09-.77-.28-1.52-.43-2.29a6.8,6.8,0,0,1-.06-2.91c.13-.46.37-1,.92-1,.32,0,1.18.57.93,1,.93-1.55-1.23-2.62-2.46-2.55a2.84,2.84,0,0,0-2.76,2.33,6.92,6.92,0,0,0-2.1-1.1c-3.89-1.4-8.53.1-10.1,4.19a6.68,6.68,0,0,0-.31,3.57A3.64,3.64,0,0,0,179.34,31a3.6,3.6,0,0,0,1.47-.61,3.24,3.24,0,0,0,1-4.3,3.48,3.48,0,0,0-3.43-1.52,2.93,2.93,0,0,0-1.77,1.31c-.23.39-.52,1.34-.23,1.74a2.93,2.93,0,0,1-.3-2.75,5.66,5.66,0,0,1,1.64-2.69,7.37,7.37,0,0,1,9,.07,9,9,0,0,1,2.5,9.22c-1.24,4.45-4.37,6.16-8.37,5.57h-.17c2.61,0,5.37-.57,6.7-2.77A8.07,8.07,0,0,0,188.52,29c-.24-1.69-2-5.19-4.15-3.37-.81.68.12,2.35.47,3,1.33,2.42,1.13,5.32-1.67,6.81-2.44,1.3-5.33.59-7.92-.27-2.87-1-5.23-3.08-7.94-4.32.29.08.58.17.88.23a4.83,4.83,0,0,0,3.9-.58,3.87,3.87,0,0,0,1.35-3.37c-.06-1.52-.36-3.71,1.44-4.32a1.73,1.73,0,0,0-.32-.11A2.12,2.12,0,0,0,172,24.25c-.57-2.15-4-3.41-6-2.86.53-.15,1.6.86,1.87,1.23a3.39,3.39,0,0,1,.67,2.06c0,1.45-.55,3-2.15,3.25-2,.37-4.64-.87-6.53-1.51a5.05,5.05,0,0,0,3.31-.69c2.37-1.62,1.72-4.27-.48-5.7-1.47-1-4.42-.82-4.19,1.55a1.8,1.8,0,0,0,2.91,1.12c.52-.55.62-1.38-.21-1.65.36.1.34.79.15,1C160,23.59,158,20.81,160,20.12a2.88,2.88,0,0,1,1.94.14,3.1,3.1,0,0,1,1.61,3.2c-.86,3.18-4.48,2.59-7.55,1.59-1.41-.55-2.85-1.05-4.31-1.46-5.53-1.55-10.41-1.94-15.29.26a5.42,5.42,0,0,0-2.17-7.17,7,7,0,0,0-2.88-.94c-1.89-.18-7.59,2.19-7.52-1.24a2.49,2.49,0,0,0-.27,2.29,2.4,2.4,0,0,0,.55,1c.16.14.9.63,1.1.55-2,.84-4,1.54-6.16.79a5.89,5.89,0,0,1-4-3.66A3.84,3.84,0,0,1,116.6,11a4,4,0,0,1,3.36-.1,3.58,3.58,0,0,1,1.51,1,2,2,0,0,1,.44,1.89,2.42,2.42,0,0,0-4.49-1.13,2.47,2.47,0,0,0-.19,1,2.52,2.52,0,0,0,2.57,2.47h0a2.77,2.77,0,0,0,2.75-2.74,2.61,2.61,0,0,0-.29-1.19c-.59-1.48-2.39-2.4-4.23-2.48-3.15-.13-4.94,3.63-3.75,6.32,1.79,4.09,6.69,4.71,10.44,3.39,2.29-.8,6.58-3.43,8.87-1.35,2.49,2.25,1.62,5.37-.32,7.52-.64.43-1.28.89-1.91,1.35a6.2,6.2,0,0,0-.39-4.3c-.08-.14-.16-.28-.25-.41a3.41,3.41,0,0,0-4.75-.77,4.21,4.21,0,0,0-1.62,2.93A2.5,2.5,0,0,0,126,26.76a2.41,2.41,0,0,0,2.78-1.16A1.21,1.21,0,0,0,127,24.09c1-.13,1.82.81,1,1.64h0a1.62,1.62,0,0,1-2.28-.15,2.32,2.32,0,0,1-.24-2.58,3.39,3.39,0,0,1,2.09-1.65c2-.4,3,1.4,3,3.11a6.57,6.57,0,0,1-2.39,4.7,18.16,18.16,0,0,1-4.37,3A19,19,0,0,1,118.68,34c-3.21.44-6.9-1.1-8.3-4.16a6.3,6.3,0,0,1-.54-3.5,8.15,8.15,0,0,0-.78,5,6.33,6.33,0,0,0,2.55,3.83,5.56,5.56,0,0,0,2.06.64A5.81,5.81,0,0,1,107,32.44a9.47,9.47,0,0,1,.16-9.09,5.07,5.07,0,0,1,3.28-2.8,6.54,6.54,0,0,1,5.6,1c1.7,1.16,2.78,4.18,1.43,5.94a2.13,2.13,0,0,1-1,.75,2.57,2.57,0,0,0,.14-3.35,2.83,2.83,0,0,0-3.55-.54l-.18.13a2.9,2.9,0,0,0-.54,4.08h0A3.56,3.56,0,0,0,115,29.79a3.48,3.48,0,0,0,1.83-.53.56.56,0,0,0,.2-.11l.12-.12A3.5,3.5,0,0,0,118,28c2.66-4.16-2.07-9.14-6.88-8.94-5,.21-7.79,5.16-7.36,9.74-1.54-4.92,3.21-10.11,4.85-14.92S108.81,3.48,104.19,1a6.67,6.67,0,0,0-1.66-.68c.85.2,2.1,2,2.46,2.7a8.28,8.28,0,0,1,.86,4c0,4.69-2.43,8.6-3.43,13A21.16,21.16,0,0,0,102,23.41Z" transform="translate(0.04 -0.35)"/>
      <path class="cls-1" d="M101.88,23.41a16.91,16.91,0,0,1-.5,5.06,10.44,10.44,0,0,1-1.91,3.79,16.11,16.11,0,0,1-1.53,1.67c-.5.49-1.16.81-1.62,1.35a3.7,3.7,0,0,1,3.93.49c.86.87,1.26,2.87.35,3.87a2.54,2.54,0,0,0-.17-2c-.81-1.14-2.58-1.35-3.81-1.14a48.47,48.47,0,0,1-6.1,1c-5.09.27-10-2.82-14.09-5.6-.74-.51-1.61-.91-2.4-1.35a7.39,7.39,0,0,0-3.15-.8c-3.14-.12-6.94.73-7.94,4.15-.77,2.64,0,6,3.13,6.45,1.81.27,4.55-.13,5.33-2.13a3.78,3.78,0,0,0-1.19-4.36,3,3,0,0,0-2.83-.62,2.23,2.23,0,0,0-1.24,2.49,1.4,1.4,0,0,0,.28.54,1.64,1.64,0,0,0,2.3.31h0a1.07,1.07,0,0,0,.17-1.5l0,0c.78.35.69,1.57.29,2.18a2.08,2.08,0,0,1-2,.66,2.57,2.57,0,0,1-2.39-3.53,3.84,3.84,0,0,1,2.55-2.13c2.29-.75,5.31.3,6.14,2.73.91,2.64-.81,4.47-3.09,5.47-4.36,2-11.58.65-9.73-5.67a6.91,6.91,0,0,1,2-3.16,8,8,0,0,0-3.47,4.11,31.54,31.54,0,0,1-2,4.24c-.55.82-2.1,2.63-2.87.93a3.3,3.3,0,0,1,.18-2.41,16.14,16.14,0,0,1,3.14-4.37A15.43,15.43,0,0,1,64,29.87a13.12,13.12,0,0,0-4.88,1.86,48.32,48.32,0,0,0-5.39,4.92,25.08,25.08,0,0,1-10.67,5.81c-2.71.68-6.61,1.5-9.16-.16-4-2.58-.68-8.13,3.32-8.3,2.73-.11,5,3.29,2.43,5.29a2.36,2.36,0,0,1-2.19.38c-.63-.23-1.47-1.13-1-1.8-.08.7.29,1.07,1,1a1.7,1.7,0,0,0,1.27-.78c1-1.92-1.57-4.42-3.23-2.57-1.06,1.18-1.87,3.16-1,4.68,1.82,3.15,6.88,2.15,9.65,1.15A25.23,25.23,0,0,0,53.59,35c4.31-4.35,9.5-6.2,15.63-6.28a18.5,18.5,0,0,1,2.35.12A16.37,16.37,0,0,0,64.29,28c-1.92.23-3.71,1-5.62,1.23-1.29.15-2.83-.16-2.5-1.78.14-.74.9-1.12,1.54-1.4a10.1,10.1,0,0,1,4.78-.59,28.7,28.7,0,0,1,7.31,1.71c-2.19-1.49-4.55-3-7.19-3.38a14.24,14.24,0,0,0-9.18,1.63c-1.69.9-4,2.27-4.52,4.27a2.29,2.29,0,0,0,3.69,2.46,2.71,2.71,0,0,0,.72-1.13c-.77,2.42-2.67,4.6-5.39,4.78a3.26,3.26,0,0,1-1.65-.35,3.17,3.17,0,0,1-1.4-4.26h0a3.71,3.71,0,0,1-3.36,2.31c-1.06,0-2.39-.5-2.46-1.7a.78.78,0,0,0,.82.51c3.45.44,4.54-4.65,7.15-5.79-.78.33-1.52.62-2.3,1-4.11,2-7.89,4.73-12,6.87-3.62,1.92-9.32,4.41-13.85,3.86-3.21,0-6-.84-9,.82C7.8,40.35,5.48,41.47,3,41.35,1,41.23-.39,40.23.05,38c-.15,1.74,1.69,2.18,3.08,1.88,2-.47,3.36-2.47,4.64-3.9a5.14,5.14,0,0,1,2.28-1.78,4.71,4.71,0,0,1,3.32.33,9.33,9.33,0,0,1-.71-1.84,15.48,15.48,0,0,1-.27-5.91c.09-.77.28-1.52.43-2.29a6.8,6.8,0,0,0,.06-2.91c-.13-.46-.37-1-.92-1-.32,0-1.18.57-.93,1C10.1,20,12.26,19,13.49,19a2.84,2.84,0,0,1,2.76,2.33,6.92,6.92,0,0,1,2.1-1.1c3.89-1.4,8.53.1,10.1,4.19A6.78,6.78,0,0,1,28.76,28,3.65,3.65,0,0,1,24.52,31a3.5,3.5,0,0,1-1.46-.61,3.24,3.24,0,0,1-1-4.3,3.47,3.47,0,0,1,3.43-1.52,3,3,0,0,1,1.77,1.31c.23.39.52,1.34.23,1.74a3,3,0,0,0,.3-2.75,5.66,5.66,0,0,0-1.64-2.69,7.37,7.37,0,0,0-9,.07,9,9,0,0,0-2.5,9.22C15.89,35.88,19,37.59,23,37h.17c-2.61,0-5.37-.57-6.7-2.77A8.07,8.07,0,0,1,15.35,29c.24-1.69,2-5.19,4.15-3.37.81.68-.12,2.35-.47,3C17.7,31.07,17.9,34,20.7,35.46c2.44,1.3,5.33.59,7.92-.27,2.87-1,5.23-3.08,7.94-4.32-.29.08-.58.17-.88.23a4.82,4.82,0,0,1-3.9-.58,3.84,3.84,0,0,1-1.35-3.37c.06-1.52.36-3.71-1.44-4.32a1.73,1.73,0,0,1,.32-.11,2.13,2.13,0,0,1,2.57,1.53c.57-2.15,4-3.41,6-2.86-.53-.15-1.6.86-1.87,1.23a3.32,3.32,0,0,0-.67,2.06c0,1.45.55,3,2.15,3.25,2,.37,4.64-.87,6.53-1.51a5.05,5.05,0,0,1-3.31-.69c-2.37-1.62-1.72-4.27.48-5.7,1.47-1,4.42-.82,4.19,1.55a1.81,1.81,0,0,1-2.06,1.5,1.78,1.78,0,0,1-.85-.38c-.52-.55-.62-1.38.21-1.65-.36.1-.34.79-.15,1,1.35,1.54,3.35-1.24,1.3-1.93a2.88,2.88,0,0,0-1.94.14,3.1,3.1,0,0,0-1.61,3.2c.86,3.18,4.48,2.59,7.55,1.59,1.41-.55,2.85-1.05,4.31-1.46,5.53-1.55,10.41-1.94,15.29.26a5.42,5.42,0,0,1,2.17-7.17,7,7,0,0,1,2.88-.94c1.89-.18,7.59,2.19,7.52-1.24a2.49,2.49,0,0,1,.27,2.29,2.4,2.4,0,0,1-.55,1c-.16.14-.9.63-1.1.55,2,.84,4,1.54,6.16.79a5.93,5.93,0,0,0,4-3.66A3.85,3.85,0,0,0,87.27,11a4,4,0,0,0-3.36-.1,3.58,3.58,0,0,0-1.51,1A2,2,0,0,0,82,13.79a2.42,2.42,0,0,1,4.49-1.13,2.65,2.65,0,0,1,.19,1,2.52,2.52,0,0,1-2.57,2.47h0a2.76,2.76,0,0,1-2.75-2.74,2.61,2.61,0,0,1,.29-1.19c.59-1.48,2.39-2.4,4.23-2.48C89,9.59,90.76,13.35,89.57,16c-1.79,4.09-6.69,4.71-10.44,3.39-2.29-.8-6.58-3.43-8.87-1.35-2.49,2.25-1.62,5.37.32,7.52.64.43,1.28.89,1.91,1.35a6.2,6.2,0,0,1,.39-4.3c.08-.14.16-.28.25-.41a3.41,3.41,0,0,1,4.75-.77A4.24,4.24,0,0,1,79.5,24.4a2.5,2.5,0,0,1-1.62,2.36A2.41,2.41,0,0,1,75.1,25.6,1.21,1.21,0,0,1,75.68,24a1.23,1.23,0,0,1,1.2.1c-1-.13-1.82.81-1,1.64h0a1.62,1.62,0,0,0,2.28-.15A2.34,2.34,0,0,0,78.4,23a3.42,3.42,0,0,0-2.09-1.65c-2-.4-3,1.4-3,3.11a6.54,6.54,0,0,0,2.39,4.7,18,18,0,0,0,4.37,3A19,19,0,0,0,85.19,34c3.21.44,6.9-1.1,8.3-4.16a6.39,6.39,0,0,0,.54-3.5,8.15,8.15,0,0,1,.78,5,6.33,6.33,0,0,1-2.55,3.83,5.56,5.56,0,0,1-2.06.64,5.82,5.82,0,0,0,6.63-3.38,9.47,9.47,0,0,0-.16-9.09,5.12,5.12,0,0,0-3.28-2.8,6.53,6.53,0,0,0-5.6,1c-1.7,1.16-2.78,4.18-1.43,5.94a2.13,2.13,0,0,0,1,.75,2.57,2.57,0,0,1-.14-3.35,2.83,2.83,0,0,1,3.55-.54l.18.13a2.92,2.92,0,0,1,.54,4.08h0a3.56,3.56,0,0,1-2.61,1.23,3.48,3.48,0,0,1-1.83-.53.43.43,0,0,1-.2-.11L86.73,29A3.37,3.37,0,0,1,85.85,28c-2.66-4.16,2.07-9.14,6.88-8.94,5,.21,7.79,5.16,7.36,9.74,1.54-4.92-3.21-10.11-4.85-14.92S95.06,3.48,99.68,1a6.52,6.52,0,0,1,1.66-.68c-.85.2-2.1,2-2.46,2.7a8.17,8.17,0,0,0-.86,4c0,4.69,2.43,8.6,3.43,13A22.38,22.38,0,0,1,101.88,23.41Z" transform="translate(0.04 -0.35)"/>
    </g>
  </g>
</svg>
